{
  "editor.tabSize": 2,
  "editor.lineNumbers": "on",
  "git.enableSmartCommit": true,
  "git.autofetch": true,
  "workbench.iconTheme": "material-icon-theme",
  "editor.formatOnPaste": true,
  "editor.formatOnSave": true,
  "editor.fontLigatures": true,
  "editor.fontFamily": "JetBrainsMono Nerd Font, JetBrains Mono",
  "debug.console.fontFamily": "JetBrains Mono, Consolas, 'Courier New', monospace",
  "terminal.integrated.fontFamily": "JetBrains Mono, Consolas, 'Courier New', monospace",
  "editor.tokenColorCustomizations": {
    "textMateRules": [
      {
        "scope": [
          "keyword", //import, export, return…
          "comment",
          "entity.name.type.class", //class names
          "keyword", //import, export, return…
          "constant", //String, Number, Boolean…, this, super
          "storage.modifier", //static keyword
          "storage.type.class.js" //class keyword
        ],
        "settings": {
          "fontStyle": "italic"
        }
      },
      {
        "scope": [
          //following will be excluded from italics (VSCode has some defaults for italics)
          "invalid",
          "keyword.operator",
          "constant.numeric.css",
          "keyword.other.unit.px.css",
          "constant.numeric.decimal.js",
          "constant.numeric.json"
        ],
        "settings": {
          "fontStyle": ""
        }
      }
    ]
  },
  "vim.insertModeKeyBindings": [
    {
      "before": ["<esc>"],
      "after": ["<esc>"]
    }
  ],
  "editor.suggestSelection": "first",
  "workbench.colorCustomizations": {
    "editor.selectionHighlightBorder": "#152742",
    "editor.selectionBackground": "#75869ec7",
    "editor.selectionForeground": "#5f7491",
    "editor.selectionHighlightBackground": "#2d4668",
    "editor.background": "#121313",
    "sideBar.background": "#181a1f",
    "sideBarSectionHeader.background": "#23282F",
    "activityBar.background": "#23282F",
    "editorBracketHighlight.foreground3": "#54a6dd"
    //"editorGutter.background": "#ff0000"
  }, // "files.associations": {
  //   "*.svelte": "html"
  // }
  "[dart]": {
    // Automatically format code on save and during typing of certain characters
    // (like `;` and `}`).
    "editor.formatOnSave": true,
    "editor.formatOnType": true,
    // Draw a guide line at 80 characters, where Dart's formatting will wrap code.
    "editor.rulers": [80],
    // Disables built-in highlighting of words that match your selection. Without
    // this, all instances of the selected text will be highlighted, interfering
    // with Dart's ability to highlight only exact references to the selected variable.
    "editor.selectionHighlight": false,
    // By default, VS Code prevents code completion from popping open when in
    // "snippet mode" (editing placeholders in inserted code). Setting this option
    // to `false` stops that and allows completion to open as normal, as if you
    // weren't in a snippet placeholder.
    "editor.suggest.snippetsPreventQuickSuggestions": false,
    // By default, VS Code will pre-select the most recently used item from code
    // completion. This is usually not the most relevant item.
    //
    // "first" will always select top item
    // "recentlyUsedByPrefix" will filter the recently used items based on the
    //     text immediately preceeding where completion was invoked.
    "editor.suggestSelection": "first",
    // Allows pressing <TAB> to complete snippets such as `for` even when the
    // completion list is not visible.
    "editor.tabCompletion": "onlySnippets",
    // By default, VS Code will populate code completion with words found in the
    // current file when a language service does not provide its own completions.
    // This results in code completion suggesting words when editing comments and
    // strings. This setting will prevent that.
    "editor.wordBasedSuggestions": false,
    // Force all files to have a trailing newline for consistency and reduced diffs
    // when adding new lines at the bottom of the file.
    "files.insertFinalNewline": true
  },
  "[javascript][typescript]": {
    "editor.formatOnSave": true,
    "editor.defaultFormatter": "esbenp.prettier-vscode"
  },
  "prettier.printWidth": 70,
  "prettier.singleQuote": true,
  "prettier.trailingComma": "es5",
  "prettier.semi": false,
  "[json]": {
    "editor.defaultFormatter": "esbenp.prettier-vscode"
  },
  "todo-tree.highlights.enabled": true,
  "dart.openDevTools": "flutter",
  "oneDarkPro.editorTheme": "panda",
  "markdown-preview-enhanced.previewTheme": "atom-dark.css",
  "editor.formatOnType": true,
  "oneDarkPro.vivid": true,
  "workbench.colorTheme": "One Dark Pro",
  "editor.fontWeight": "350",
  "editor.fontSize": 13,
  "markdown.preview.fontSize": 13,
  "terminal.integrated.fontSize": 13,
  "debug.console.fontSize": 13,
  "generateUuid.uuidType": "V4",
  "[typescriptreact]": {
    "editor.defaultFormatter": "esbenp.prettier-vscode"
  },
  "[javascriptreact]": {
    "editor.defaultFormatter": "esbenp.prettier-vscode"
  },
  "workbench.editor.showTabs": false,
  "csv-preview.lineNumbers": "source",
  "keyboard.dispatch": "keyCode",
  "editor.acceptSuggestionOnEnter": "off",
  "vim.useSystemClipboard": true,
  "editor.linkedEditing": true,
  "workbench.statusBar.visible": true,
  "[jsonc]": {
    "editor.defaultFormatter": "esbenp.prettier-vscode"
  },
  "workbench.welcomePage.hiddenCategories": ["Setup", "Beginner"],
  "editor.lineHeight": 22,
  "editor.cursorSmoothCaretAnimation": true,
  "editor.cursorBlinking": "smooth",
  "editor.cursorStyle": "line",
  "editor.insertSpaces": false,
  "editor.wordSeparators": "/\\()\"':,.;<>~!@#$%^&*|+=[]{}`?-",
  "editor.wordWrap": "off",
  "workbench.editor.untitled.hint": "hidden",
  "editor.bracketPairColorization.enabled": true,
  "vim.sneak": true,
  "vim.sneakReplacesF": true
}
